Ipomopsis temperature experiments
…
meta %>% write.csv("data/CWu_meta21.csv")

meta %>% count(Year, Temp, Tissue, PlantType, OI, DN, Expt)

# A tibble: 64 × 8
    Year Temp  Tissue PlantType OI    DN    Expt      n
   <dbl> <fct> <fct>  <fct>     <fct> <fct> <fct> <int>
 1  2018 cool  air    air       <NA>  day   perc      4
 2  2018 cool  air    air       <NA>  night perc      4
 3  2018 cool  flower agg       <NA>  day   perc     10
 4  2018 cool  flower agg       <NA>  night perc      9
 5  2018 cool  flower ten       <NA>  day   perc      8
 6  2018 cool  flower ten       <NA>  night perc      9
 7  2018 warm  air    air       <NA>  day   perc      4
 8  2018 warm  air    air       <NA>  night perc      4
 9  2018 warm  flower agg       <NA>  day   perc      8
10  2018 warm  flower agg       <NA>  night perc      7
# … with 54 more rows
…
